Name,Abbreviation,Description,Virtual,Pattern,Examples
BUOY,BUOY,,Yes,buoy,
MFN,MFN,,Yes,mfn,
NSIF,NSIF,,Yes,nsif,
Bulk Meteorology Instrument,METBK,,No,metbk\d?,"METBK1, METBK2"
Sensor & Telemetry Controller,STC,,No,stc,
Communications & Power Manager,CPM,,No,cpm\d?,
Data Concentrator & Logger,DCL,,No,dcl\d?,
Inductive Modem,IMM,,No,imm,
Motion Sensor,MOPAK,,No,mopak\d?,
Hydrogen Sensor,HYD,,No,hyd\d?,
Dissolved Oxygen Sensor,DOSTA,,No,dosta\d?,
Spectral Irradiance Sensor,SPKIR,,No,spkir\d?,
,METHTR,,No,methtr\d?,
Nutrient Analyzer,NUTNR,,No,nutnr\d?,
Optical Properties Sensor,OPTAA,,No,optaa\d?,
Fluorometer,FLORT,,No,flort\d?,
CO2 Sensor,PCO2,,No,pco2[aw]?\d?,
Wave Motion Sensor,WAVSS,,No,wavss,
Covariance Flux Sensor,FDCHP,,No,fdchp,
,VICSHTR,,No,vicshtr,
,VICS,,No,vicshtr,
Ultraviolet Light,UVLIGHT,,No,uvlight,
,VICSLIGHT,,No,vicslight,
Conductivity Temperature Depth Sensor,CTDBP,,No,ctdbpf?(?:0\d)?,
Conductivity Temperature Depth Sensor,CTDMO,,No,ctdmo\d*,
Motion Sensor,VELPT,,No,velpt,
Xeos Telemetry Package,XEOS,,No,xeos\d?,
Extended Current Profile Sensor,ADCP,,No,adcpt?,
CO2 Sensor,PCO2W,,No,see pco2,
pH Sensor,PHSEN,,No,phsen\d?,
Iridium Sideband Modem,IDIR_SBD,,No,irid_sbd,
Iridium ISU Modem,IRID_ISU,,No,irid_isu,
Global Positioning System,GPS,,No,gps,
Fleet Broadband (obsolete),FB,,No,fb,
Iridium Subscriber Unit,ISU,,No,isu\d?,
Short Burst Data,SBD,,No,sbd\d?,
Radar Target Enhancer,RTE,,No,rte,
Turbidity Sensor,TURBD,,No,turbd\d?,
Pressure Sensor,PRESF,,No,presf,
3D Motion Sensor,3DMGX3,,No,3dmgx,
,DOFST,,No,dofst,
,PARAD,,No,parad,
3D Motion Sensor,VEL3D,,No,vel3d,
,MMP,,No,mmp,
,ADCPT,,No,see adcp,
Wire Following Profiler,WFP,,No,wfp,
Zooplankton Sensor,ZPLSC,,No,zplsc,
Conductivity Temperature Depth Sensor,CTDBPF,,No,see ctdbp,
Iridium Modem,IRIDIUM,,No,idirium,
Supervisor Process,SUPERV,,No,superv,
Power System,PWRSYS,,No,pwrsys,
Wire Following Profiler Engineering Data,WFPENG,,No,wfpeng,
Port,PORT,,No,port\d,
Mooring,MOORING,,No,(?mi)[a-z]{2}\d{2}\w{4}$,
Glider,GLIDER,,No,\w{8}-gl\d+,