{
  "groups": [
    "Administrators",
    "Operators",
    "Content Managers"
  ],
  "permissions": [
    {
      "model": "website",
      "name": "Change Settings",
      "code": "change_settings",
      "groups": ["Administrators"]
    },
    {
      "model": "website",
      "name": "Manage Users",
      "code": "manage_users",
      "groups": ["Administrators"]
    },
    {
      "model": "website",
      "name": "Delete User",
      "code": "delete_user",
      "groups": ["Administrators"]
    },
    {
      "model": "website",
      "name": "Manage Shared Triggers",
      "code": "manage_global_triggers",
      "groups": ["Administrators"]
    },
    {
      "model": "website",
      "name": "Manage Shared Variables",
      "code": "manage_global_variables",
      "groups": ["Administrators", "Content Managers"]
    },
    {
      "model": "website",
      "name": "Manage Plots",
      "code": "manage_plots",
      "groups": ["Administrators", "Content Managers", "Operators"]
    },
    {
      "model": "website",
      "name": "Manage Redmine",
      "code": "manage_redmine",
      "groups": ["Administrators", "Content Managers"]
    },
    {
      "model": "website",
      "name": "Manage Groups",
      "code": "manage_groups",
      "groups": ["Administrators"]
    },
    {
      "model": "website",
      "name": "Manage ERDDAP ID",
      "code": "manage_erddap_id",
      "groups": ["Administrators", "Content Managers"]
    },
    {
      "model": "website",
      "name": "Shared Plot Access",
      "code": "full_plot_access",
      "groups": ["Administrators", "Content Managers"]
    },
    {
      "model": "website",
      "name": "Edit Platforms",
      "code": "edit_platforms",
      "groups": ["Administrators", "Content Managers"]
    },
    {
      "model": "website",
      "name": "Delete Triggers with Alerts",
      "code": "can_delete_triggers_with_alerts",
      "groups": ["Administrators"]
    },
    {
      "model": "website",
      "name": "Add Shared Triggers/Plots/L3s",
      "code": "add_shared_items",
      "groups": ["Administrators", "Content Managers"]
    },
    {
      "model": "website",
      "name": "Clone Shared Triggers/Plots/L3s",
      "code": "clone_shared_items",
      "groups": ["Administrators", "Content Managers"]
    },
    {
      "model": "website",
      "name": "Clone Other User's Triggers/Plots/L3s",
      "code": "clone_other_items",
      "groups": ["Administrators", "Content Managers"]
    },
    {
      "model": "website",
      "name": "Can Change Cloned Non-owned Triggers/Plots/L3s Without Changing Owner",
      "code": "clone_without_owning",
      "groups": ["Administrators"]
    },
    {
      "model": "website",
      "name": "Edit Shared Triggers/Plots/L3s",
      "code": "edit_shared_items",
      "groups": ["Administrators", "Content Managers"]
    },
    {
      "model": "website",
      "name": "Edit Other User's Triggers/Plots/L3s",
      "code": "edit_other_items",
      "groups": ["Administrators"]
    },
    {
      "model": "website",
      "name": "Can Change Ownership of Triggers/Plots/L3s",
      "code": "can_change_item_ownership",
      "groups": ["Administrators"]
    },
    {
      "model": "website",
      "name": "Delete Shared Triggers/Plots/L3s",
      "code": "delete_shared_items",
      "groups": ["Administrators", "Content Managers"]
    },
    {
      "model": "website",
      "name": "Delete Shared Triggers/Plots/L3s with Alerts",
      "code": "delete_share_items_with_alerts",
      "groups": ["Administrators"]
    },
    {
      "model": "website",
      "name": "Delete Other User's Triggers/Plots/L3s",
      "code": "delete_other_items",
      "groups": ["Administrators"]
    },
    {
      "model": "website",
      "name": "Manage Asset Classifications",
      "code": "manage_classifications",
      "groups": ["Administrators"]
    },
    {
      "model": "website",
      "name": "Edit Asset",
      "code": "edit_asset",
      "groups": ["Administrators"]
    }
  ]
}
